Source code/adder_single_cycle.vcd
$date
	Sun Feb 09 10:47:16 2025
$end
$version
	Icarus Verilog
$end
$timescale
	1ps
$end
$scope module tb_adder_single_cycle $end
$var wire 1 ! o_res_vld $end
$var wire 16 " o_res [15:0] $end
$var wire 1 # Overflow $end
$var reg 1 $ clk $end
$var reg 16 % i_a [15:0] $end
$var reg 16 & i_b [15:0] $end
$var reg 1 ' i_valid $end
$var reg 1 ( rst $end
$scope module uut $end
$var wire 1 $ clk $end
$var wire 16 ) i_a [15:0] $end
$var wire 16 * i_b [15:0] $end
$var wire 1 ' i_valid $end
$var wire 1 + infinity_a $end
$var wire 1 , infinity_b $end
$var wire 1 - nan_a $end
$var wire 1 . nan_b $end
$var wire 1 ( rst $end
$var wire 1 / zero_ip $end
$var wire 1 0 zero_b $end
$var wire 1 1 zero_a $end
$var wire 1 2 sign_out_w $end
$var wire 16 3 res [15:0] $end
$var wire 1 4 overflow_flag_w $end
$var wire 5 5 new_exp_w [4:0] $end
$var wire 14 6 mantisa_out_w [13:0] $end
$var wire 11 7 mantisa_out [10:0] $end
$var wire 13 8 mantisa2_w [12:0] $end
$var wire 13 9 mantisa2_new_w [12:0] $end
$var wire 13 : mantisa1_w [12:0] $end
$var wire 13 ; mantisa1_new_w [12:0] $end
$var wire 5 < exp_out_w [4:0] $end
$var wire 5 = exp2_w [4:0] $end
$var wire 5 > exp1_w [4:0] $end
$var reg 1 # Overflow $end
$var reg 16 ? o_res [15:0] $end
$var reg 1 ! o_res_vld $end
$scope module u_addition_s $end
$var wire 1 @ sign1 $end
$var wire 1 A sign2 $end
$var wire 14 B mantisa_out [13:0] $end
$var wire 13 C mantisa2 [12:0] $end
$var wire 13 D mantisa1 [12:0] $end
$var wire 14 E Mantisa_w2 [13:0] $end
$var wire 14 F Mantisa_w1 [13:0] $end
$upscope $end
$scope module u_compare_and_shift $end
$var wire 5 G exp1 [4:0] $end
$var wire 5 H exp2 [4:0] $end
$var wire 13 I mantisa1 [12:0] $end
$var wire 13 J mantisa2 [12:0] $end
$var wire 5 K exp_dif [4:0] $end
$var reg 13 L mantisa1_new [12:0] $end
$var reg 13 M mantisa2_new [12:0] $end
$var reg 5 N new_exp [4:0] $end
$upscope $end
$scope module u_normalisation $end
$var wire 5 O exp [4:0] $end
$var wire 14 P mantisa [13:0] $end
$var wire 1 Q sign_bit $end
$var wire 13 R abs_mantissa [12:0] $end
$var reg 5 S exp_out [4:0] $end
$var reg 11 T mantisa_out [10:0] $end
$var reg 13 U normalized_mantissa [12:0] $end
$var reg 1 4 overflow_flag $end
$var reg 1 2 sign_res $end
$var reg 5 V temp_exp [4:0] $end
$scope begin $ivl_for_loop0 $end
$var integer 32 W i [31:0] $end
$upscope $end
$scope begin $ivl_for_loop1 $end
$var integer 32 X i [31:0] $end
$upscope $end
$upscope $end
$upscope $end
$upscope $end
$enddefinitions $end
$comment Show the parameter values. $end
$dumpall
$end
#0
$dumpvars
b1101 X
b1101 W
b0 V
b100000000000 U
b1000000000 T
b0 S
b100000000000 R
0Q
b100000000000 P
b0 O
b0 N
b10000000000 M
b10000000000 L
b0 K
b10000000000 J
b10000000000 I
b0 H
b0 G
b10000000000 F
b10000000000 E
b10000000000 D
b10000000000 C
b100000000000 B
0A
0@
b0 ?
b0 >
b0 =
b0 <
b10000000000 ;
b10000000000 :
b10000000000 9
b10000000000 8
b1000000000 7
b100000000000 6
b0 5
04
b0 3
02
11
10
1/
0.
0-
0,
0+
b0 *
b0 )
1(
0'
b0 &
b0 %
0$
0#
b0 "
0!
$end
#5000
1$
#10000
0$
0(
#15000
1$
#20000
b100011000000000 3
b100000000000 R
b1101 X
b100000000000 U
b1101 W
b10001 V
b10001 <
b10001 S
b1000000000 7
b1000000000 T
b1100000000 E
b100000000000 6
b100000000000 B
b100000000000 P
b10100000000 F
b1 K
0/
b10001 5
b10001 N
b10001 O
b1100000000 9
b1100000000 C
b1100000000 M
b10100000000 ;
b10100000000 D
b10100000000 L
b10000 =
b10000 H
00
b11000000000 8
b11000000000 J
b10001 >
b10001 G
01
b10100000000 :
b10100000000 I
0$
b100001000000000 &
b100001000000000 *
b100010100000000 %
b100010100000000 )
1'
#25000
1!
b100011000000000 "
b100011000000000 ?
1$
#30000
0$
0'
#35000
0!
1$
#40000
0$
#45000
1$
#50000
b100001110000000 3
b10000 <
b10000 S
b11100000000 R
b1101 X
b10000 V
b111000000000 U
b1101 W
b1110000000 7
b1110000000 T
b100000000 E
b11100000000 6
b11100000000 B
b11100000000 P
b11000000000 F
b10 K
b10001 5
b10001 N
b10001 O
b100000000 9
b100000000 C
b100000000 M
b11000000000 ;
b11000000000 D
b11000000000 L
b1111 =
b1111 H
b10000000000 8
b10000000000 J
b11000000000 :
b11000000000 I
0$
b11110000000000 &
b11110000000000 *
b100011000000000 %
b100011000000000 )
1'
#55000
1!
b100001110000000 "
b100001110000000 ?
1$
#60000
0$
0'
#65000
0!
1$
#70000
0$
#75000
1$
#80000
b11111000000000 3
b1000000000 R
b1101 X
b1101 W
b1111 V
b100000000000 U
b1111 <
b1111 S
b1000000000 7
b1000000000 T
b10100000000 F
b1 K
b1000000000 6
b1000000000 B
b1000000000 P
b11110100000000 E
b10001 5
b10001 N
b10001 O
b1100000000 9
b1100000000 C
b1100000000 M
b10100000000 ;
b10100000000 D
b10100000000 L
b10000 =
b10000 H
b11000000000 8
b11000000000 J
1A
b10100000000 :
b10100000000 I
0$
b1100001000000000 &
b1100001000000000 *
b100010100000000 %
b100010100000000 )
1'
#85000
1!
b11111000000000 "
b11111000000000 ?
1$
#90000
0$
0'
#95000
0!
1$
#100000
0$
#105000
1$
#110000
b11111000001100 3
b100000110000 R
b1111 <
b1111 S
b1101 X
b1111 V
b1101 W
b100000110000 U
b1000001100 7
b1000001100 T
b10000010000 F
b100000110000 6
b100000110000 B
b100000110000 P
b10000100000 E
b0 K
b1111 5
b1111 N
b1111 O
b10000100000 9
b10000100000 C
b10000100000 M
b10000010000 ;
b10000010000 D
b10000010000 L
b1111 =
b1111 H
b10000100000 8
b10000100000 J
0A
b1111 >
b1111 G
b10000010000 :
b10000010000 I
0$
b11110000100000 &
b11110000100000 *
b11110000010000 %
b11110000010000 )
1'
#115000
1!
b11111000001100 "
b11111000001100 ?
1$
#120000
0$
0'
#125000
0!
1$
#130000
0$
#135000
1$
#140000
b111110000000000 3
14
b11111111111 R
b1101 X
b111111111110 U
b1101 W
b11101 V
b11111 <
b11111 S
b0 7
b0 T
b0 E
b11111111111 6
b11111111111 B
b11111111111 P
b11111111111 F
b1011 K
b11110 5
b11110 N
b11110 O
b0 9
b0 C
b0 M
b11111111111 ;
b11111111111 D
b11111111111 L
b10011 =
b10011 H
b10000000000 8
b10000000000 J
b11110 >
b11110 G
b11111111111 :
b11111111111 I
0$
b100110000000000 &
b100110000000000 *
b111101111111111 %
b111101111111111 )
1'
#145000
1#
1!
b111110000000000 "
b111110000000000 ?
1$
#150000
0$
0'
#155000
0!
1$
#160000
0$
#165000
1$
#170000
b101001010000010 3
b1010000010 7
b1010000010 T
b10100000101 R
b101 E
b101 9
b101 C
b101 M
b1101 X
b1101 W
b10100 V
b101000001010 U
04
b10100 <
b10100 S
b10100000101 6
b10100000101 B
b10100000101 P
b10100000000 F
b1000 K
b10101 5
b10101 N
b10101 O
b10100000000 ;
b10100000000 D
b10100000000 L
b1101 =
b1101 H
b10100000000 8
b10100000000 J
b10101 >
b10101 G
b10100000000 :
b10100000000 I
0$
b11010100000000 &
b11010100000000 *
b101010100000000 %
b101010100000000 )
1'
#175000
0#
1!
b101001010000010 "
b101001010000010 ?
1$
#180000
0$
0'
#185000
0!
1$
#190000
0$
#195000
1$
#200000
b0 3
b0 R
b1101 X
b1101 W
b10000 V
b101000001010 U
b0 <
b0 S
b0 7
b0 T
b0 6
b0 B
b0 P
b11101100000000 E
b10001 5
b10001 N
b10001 O
b10100000000 9
b10100000000 C
b10100000000 M
b10100000000 ;
b10100000000 D
b10100000000 L
b0 K
b10001 =
b10001 H
1A
b10001 >
b10001 G
0$
b1100010100000000 &
b1100010100000000 *
b100010100000000 %
b100010100000000 )
1'
#205000
1!
b0 "
b0 ?
1$
#210000
0$
0'
#215000
0!
1$
#220000
0$
#225000
1$
#230000
b100010100000000 3
b1010000000 7
b1010000000 T
b1101 X
b1101 W
b10000 V
b101000000000 U
b10100000000 R
b10000 <
b10000 S
b10001 K
b10001 5
b10001 N
b10001 O
b0 9
b0 C
b0 M
b10100000000 ;
b10100000000 D
b10100000000 L
b10100000000 6
b10100000000 B
b10100000000 P
b0 E
b0 =
b0 H
10
b10000000000 8
b10000000000 J
0A
0$
b0 &
b0 *
1'
#235000
1!
b100010100000000 "
b100010100000000 ?
1$
#240000
0$
0'
#245000
0!
1$
#250000
0$
#255000
1$
#260000
b0 3
b100000000000 R
b10000000000 E
b1101 X
b1101 W
b0 V
b100000000000 U
b0 <
b0 S
b1000000000 7
b1000000000 T
b100000000000 6
b100000000000 B
b100000000000 P
b10000000000 F
b0 K
1/
b10000000000 9
b10000000000 C
b10000000000 M
b0 5
b0 N
b0 O
b10000000000 ;
b10000000000 D
b10000000000 L
b0 >
b0 G
11
b10000000000 :
b10000000000 I
0$
b0 %
b0 )
1'
#265000
1!
b0 "
b0 ?
1$
#270000
0$
0'
#275000
0!
1$
#280000
0$
#285000
1$
#290000
b1100011000000000 3
12
b100000000000 R
1Q
b1101 X
b100000000000 U
b1101 W
b10001 V
b10001 <
b10001 S
b1000000000 7
b1000000000 T
b11110100000000 E
b1 K
0/
b10001 5
b10001 N
b10001 O
b1100000000 9
b1100000000 C
b1100000000 M
b10100000000 ;
b10100000000 D
b10100000000 L
b11100000000000 6
b11100000000000 B
b11100000000000 P
b11101100000000 F
b10000 =
b10000 H
00
b11000000000 8
b11000000000 J
1A
b10001 >
b10001 G
01
b10100000000 :
b10100000000 I
1@
0$
b1100001000000000 &
b1100001000000000 *
b1100010100000000 %
b1100010100000000 )
1'
#295000
1!
b1100011000000000 "
b1100011000000000 ?
1$
#300000
0$
0'
#305000
0!
1$
#310000
0$
#315000
1$
#320000
b111101010000000 3
b101000000000 R
b1101 X
b101000000000 U
b1101 W
b11110 V
02
b11110 <
b11110 S
b1010000000 7
b1010000000 T
0Q
b10000000000 E
b0 K
b11110 5
b11110 N
b11110 O
b10000000000 9
b10000000000 C
b10000000000 M
b11000000000 ;
b11000000000 D
b11000000000 L
b101000000000 6
b101000000000 B
b101000000000 P
b11000000000 F
b11110 =
b11110 H
b10000000000 8
b10000000000 J
0A
b11110 >
b11110 G
b11000000000 :
b11000000000 I
0@
0$
b111100000000000 &
b111100000000000 *
b111101000000000 %
b111101000000000 )
1'
#325000
1!
b111101010000000 "
b111101010000000 ?
1$
#330000
0$
0'
#335000
0!
1$
#340000
0$
#345000
1$
#350000
b111000000000 3
b100000000000 R
b1101 X
b100000000000 U
b1101 W
b11 V
b11 <
b11 S
b1000000000 7
b1000000000 T
b100000000000 6
b100000000000 B
b100000000000 P
b10000000000 F
b11 5
b11 N
b11 O
b10000000000 9
b10000000000 C
b10000000000 M
b10000000000 ;
b10000000000 D
b10000000000 L
b11 =
b11 H
b11 >
b11 G
b10000000000 :
b10000000000 I
0$
b110000000000 &
b110000000000 *
b110000000000 %
b110000000000 )
1'
#355000
1!
b111000000000 "
b111000000000 ?
1$
#360000
0$
0'
#365000
0!
1$
